<?xml version="1.0"?>
<svg width="640" height="480" xmlns="http://www.w3.org/2000/svg" xmlns:svg="http://www.w3.org/2000/svg">
 <!-- Created with SVG-edit - https://github.com/SVG-Edit/svgedit-->
 <g class="layer">
  <title>Layer 1</title>
  <path d="m-8.275089,292.564006c40.29851,0.74627 55.97015,33.58209 114.92537,28.35821c58.95523,-5.22388 123.13434,24.62687 185.07464,3.73134c61.94029,-20.89552 152.238798,48.50746 192.53732,32.08955c40.298523,-16.41791 171.641784,-32.835817 173.134325,-10.447757c1.49254,22.388061 45.522395,192.537317 41.791045,191.791047c-3.73134,-0.74627 -768.65673,0 -768.5906,-0.0267c0.06614,-0.02669 20.82939,-246.24196 61.1279,-245.49569z" fill="#bfbfbf" id="svg_2" stroke="#000000" stroke-dasharray="null" stroke-linecap="null" stroke-linejoin="null" stroke-width="0"/>
  <path d="m-20.970137,346.49253c0,0 93.28359,-58.20896 152.23881,-66.41792c58.95523,-8.20895 86.56717,69.40299 152.31342,65.44778c65.74624,-3.95522 99.17913,-32.61196 163.35824,-34.10449c64.17911,-1.49253 101.49254,50 130.67161,52.7612c29.17907,2.7612 69.3284,-2.7612 78.28362,-20.67165c8.95522,-17.91045 8.95522,147.7612 8.28354,147.53733c-0.67168,-0.22388 -683.6567,7.68656 -683.6567,7.68656c0,0 -1.49254,-152.23881 -1.49254,-152.23881z" fill="#ffffff" id="svg_1" stroke="#000000" stroke-width="0"/>
 </g>
</svg>